Integrity practices of global water service providers
…
score_overview_anon <- ia_data_long_anon |> 
  group_by(indicator, anonymity) |> 
  summarise(
    mean_scores = mean(score, na.rm = TRUE),
    mode_scores = names(sort(table(score), decreasing = TRUE)[1]),
    sd_scores = sd(score, na.rm = TRUE)
  )

score_overview_anon

# A tibble: 30 × 5
# Groups:   indicator [15]
   indicator   anonymity          mean_scores mode_scores sd_scores
   <chr>       <chr>                    <dbl> <chr>           <dbl>
 1 irm11_short known respondent          3.52 5                1.55
 2 irm11_short unknown respondent        2.80 1                1.53
 3 irm12_short known respondent          3.35 3                1.43
 4 irm12_short unknown respondent        2.80 1                1.39
 5 irm21_short known respondent          3.32 5                1.60
 6 irm21_short unknown respondent        3    3                1.29
 7 irm31_short known respondent          2.84 1                1.66
 8 irm31_short unknown respondent        3.15 3                1.35
 9 irm32_short known respondent          2.58 1                1.59
10 irm32_short unknown respondent        2.97 1                1.45
# ℹ 20 more rows
…
score_overview_filtered_source <- ia_data_long_filteredanon |> 
  group_by(indicator, on_off) |> 
  summarise(
    mean_scores = mean(score, na.rm = TRUE),
    mode_scores = names(sort(table(score), decreasing = TRUE)[1]),
    sd_scores = sd(score, na.rm = TRUE)
  )

score_overview_filtered_source

# A tibble: 30 × 5
# Groups:   indicator [15]
   indicator   on_off  mean_scores mode_scores sd_scores
   <chr>       <chr>         <dbl> <chr>           <dbl>
 1 irm11_short offline        2.85 3                1.41
 2 irm11_short online         4    5                1.50
 3 irm12_short offline        3    3                1.35
 4 irm12_short online         3.61 5                1.46
 5 irm21_short offline        3    3                1.41
 6 irm21_short online         3.56 5                1.72
 7 irm31_short offline        2    1                1.08
 8 irm31_short online         3.44 5                1.76
 9 irm32_short offline        1.85 1                1.14
10 irm32_short online         3.11 1                1.68
# ℹ 20 more rows

score_overview_filtered_regional <- ia_data_long_filteredanon |> 
  group_by(indicator, region) |> 
  summarise(
    mean_scores = mean(score, na.rm = TRUE),
    mode_scores = names(sort(table(score), decreasing = TRUE)[1]),
    sd_scores = sd(score, na.rm = TRUE)
  )

score_overview_filtered_regional

# A tibble: 75 × 5
# Groups:   indicator [15]
   indicator   region                       mean_scores mode_scores sd_scores
   <chr>       <fct>                              <dbl> <chr>           <dbl>
 1 irm11_short Eastern and Southern Africa         3.11 1               1.54 
 2 irm11_short Middle East and North Africa        2    2              NA    
 3 irm11_short South Asia                          3.33 3               1.03 
 4 irm11_short Latin America and Caribbean         3    1               1.93 
 5 irm11_short Western Europe                      5    5               0    
 6 irm12_short Eastern and Southern Africa         2.89 3               1.36 
 7 irm12_short Middle East and North Africa        2    2              NA    
 8 irm12_short South Asia                          3.17 3               0.408
 9 irm12_short Latin America and Caribbean         3    1               1.85 
10 irm12_short Western Europe                      4.71 5               0.756
# ℹ 65 more rows
…
